{
  "development": {
    "username": "postgres",
    "password": "gajahsql",
    "database": "secondhand_dev",
    "host": "127.0.0.1",
    "dialect": "postgres"
  },
  "test": {
    "username": "postgres",
    "password": "gajahsql",
    "database": "secondhand_test",
    "host": "127.0.0.1",
    "dialect": "postgres"
  },
  "production": {
    "username": "nxruoeabzynpnf",
    "password": "565fb1b870ca98bc87bc78cc5e857f61eedb893d62e2269bae4ebc00681fc921",
    "database": "de3t15l9pssdho",
    "host": "ec2-107-22-122-106.compute-1.amazonaws.com",
    "dialect": "postgres",
    "dialectOptions": {
      "ssl": {
        "require": true,
        "rejectUnauthorized": false
      }
    }
  }
}